/* XPM */
static char *magnifying_glass[] = {
/* columns rows colors chars-per-pixel */
"18 18 61 1",
"  c #131313",
". c gray8",
"X c #151515",
"o c #161616",
"O c gray9",
"+ c gray12",
"@ c gray13",
"# c #3E3E3E",
"$ c #3F3F3F",
"% c gray28",
"& c #484848",
"* c #505050",
"= c #515151",
"- c #535353",
"; c #585858",
": c gray35",
"> c #5F5F5F",
", c gray40",
"< c #747474",
"1 c #777777",
"2 c gray47",
"3 c gray48",
"4 c #7C7C7C",
"5 c gray49",
"6 c #7E7E7E",
"7 c #818181",
"8 c #898989",
"9 c gray56",
"0 c #939393",
"q c #989898",
"w c gray63",
"e c #A2A2A2",
"r c #A4A4A4",
"t c #AAAAAA",
"y c gray67",
"u c #AFAFAF",
"i c gray69",
"p c gray71",
"a c gray74",
"s c gray",
"d c #C6C6C6",
"f c gray79",
"g c gray80",
"h c #CDCDCD",
"j c #CECECE",
"k c gray81",
"l c gray82",
"z c #D2D2D2",
"x c #D5D5D5",
"c c #D7D7D7",
"v c #D8D8D8",
"b c gray85",
"n c gray86",
"m c gray88",
"M c #E1E1E1",
"N c gray89",
"B c #E6E6E6",
"V c #E9E9E9",
"C c gray94",
"Z c black",
"A s bg c #FFFFFFFFFFFF",
/* pixels */
"AAAAAAAAAAAAAAAAAA",
"AAAAAAAAAAAAAAAAAA",
"AAAAApq==qpAAAAAAA",
"AAAN8Oo@@oo8NAAAAA",
"AAA,o5kVCk3o,AAAAA",
"AAuo:VBAABV;ouAAAA",
"AA<ofNAAAANdo<AAAA",
"AA=+NAAAAAAN+=AAAA",
"AA=+AAAAAAAA+=AAAA",
"AA5otAAAAAAto5AAAA",
"AAso&kAAAAk%osAAAA",
"AAc<o#wAAw#  qAAAA",
"AAAn<o oo oo  7AAA",
"AAAAns3==3swo o5AA",
"AAAAAkcnncklw  o9A",
"AAAAAAAAAAAAlw >fA",
"AAAAAAAAAAAAAkulAA",
"AAAAAAAAAAAAAAdAAA"
};
